pronombre,pronombrealternativo,prodepartamento,prociudad,probarrio,prodireccion,proindicaciones,proemail1,proemail2,protelefono1,protelefono2,procelular1,procelular2,procontacto,procontactoalternativo,proVideoBeam,progestion,proingresado;
Kevin Alexander Gaitan, Alexito, Managua, Managua, Andres Castro, De donde fue la nunciatura 180 vrs al este, Arriba abajo derecha, kevinnica02@hotmail.com, kevgaitan24@gmail.com,22544337,22541237,87537529,87517539,Angela,Luis,,,,;
Kevin Alexander Gaitan, Alexito, Managua, Managua, Andres Castro, De donde fue la nunciatura 180 vrs al este, Arriba abajo derecha, kevinnica02@hotmail.com, kevgaitan24@gmail.com,22544337,22541237,87537529,87517539,Angela,Luis,,,,;
Kevin Alexander Gaitan, Alexito, Managua, Managua, Andres Castro, De donde fue la nunciatura 180 vrs al este, Arriba abajo derecha, kevinnica02@hotmail.com, kevgaitan24@gmail.com,22544337,22541237,87537529,87517539,Angela,Luis,,,,;
Kevin Alexander Gaitan, Alexito, Managua, Managua, Andres Castro, De donde fue la nunciatura 180 vrs al este, Arriba abajo derecha, kevinnica02@hotmail.com, kevgaitan24@gmail.com,22544337,22541237,87537529,87517539,Angela,Luis,,,,;
Kevin Alexander Gaitan, Alexito, Managua, Managua, Andres Castro, De donde fue la nunciatura 180 vrs al este, Arriba abajo derecha, kevinnica02@hotmail.com, kevgaitan24@gmail.com,22544337,22541237,87537529,87517539,Angela,Luis,,,,;
Kevin Alexander Gaitan, Alexito, Managua, Managua, Andres Castro, De donde fue la nunciatura 180 vrs al este, Arriba abajo derecha, kevinnica02@hotmail.com, kevgaitan24@gmail.com,22544337,22541237,87537529,87517539,Angela,Luis,,,,;